<?xml version="1.0" encoding="utf-8"?>
<!-- Generator: Adobe Illustrator 26.0.2, SVG Export Plug-In . SVG Version: 6.00 Build 0)  -->
<svg version="1.1" id="linkedin" xmlns="http://www.w3.org/2000/svg" xmlns:xlink="http://www.w3.org/1999/xlink" x="0px" y="0px"
	 viewBox="0 0 200 200" style="enable-background:new 0 0 200 200;" xml:space="preserve">
<style type="text/css">
	#linkedin .st0{fill-rule:evenodd;clip-rule:evenodd;fill:#007CB7;}
	#linkedin .st1{fill-rule:evenodd;clip-rule:evenodd;fill:#FFFFFF;}
</style>
<path class="st0" d="M99.5,2C45.7,2,2,45.7,2,99.5C2,153.4,45.7,197,99.5,197c53.9,0,97.5-43.7,97.5-97.5C197.1,45.7,153.4,2,99.5,2
	z"/>
<polygon class="st1" points="76.9,132.1 60.7,132.1 60.7,81.5 77,81.5 77,132.1 "/>
<path class="st1" d="M69.1,74.3L69.1,74.3c-5.8,0-9.5-4.1-9.5-9c0-5,3.8-8.9,9.6-8.9s9.4,3.9,9.5,8.9C78.7,70.2,75,74.3,69.1,74.3z"
	/>
<path class="st1" d="M140.2,132.1h-16.3v-27.4c0-6.9-3.5-11.5-9.7-11.5c-4.7,0-7.9,3.2-9.2,6.2c-0.4,1.1-1,2.6-1,4.1v28.6H87
	c0,0,0.2-45.2,0-50.6h17v6.7c1.8-3.5,6.9-8.4,15.9-8.4c11.2,0,20.2,7.3,20.2,23L140.2,132.1L140.2,132.1z"/>
</svg>
