<?xml version="1.0" encoding="utf-8"?>
<!-- Generator: Adobe Illustrator 26.0.2, SVG Export Plug-In . SVG Version: 6.00 Build 0)  -->
<svg version="1.1" id="print" xmlns="http://www.w3.org/2000/svg" xmlns:xlink="http://www.w3.org/1999/xlink" x="0px" y="0px"
	 viewBox="0 0 200 200" style="enable-background:new 0 0 200 200;" xml:space="preserve">
<style type="text/css">
	#print .st0{fill:#3C3C3B;}
	#print .st1{fill:#FFFFFF;}
</style>
<g>
	<path class="st0" d="M99.5,2C45.7,2,2,45.7,2,99.5C2,153.4,45.7,197,99.5,197c53.9,0,97.5-43.7,97.5-97.5
		C197.1,45.7,153.4,2,99.5,2z"/>
</g>
<g>
	<path class="st1" d="M76.6,103.2v-34v-10c0-1.4,1.1-2.7,2.5-2.8c15.2-1.7,30.7-1.7,45.9,0c1.4,0.2,2.5,1.4,2.5,2.8v10.1v34v2.8
		H76.6V103.2z"/>
	<path class="st1" d="M140.3,80.6h-7.1v31.1H70.9V80.6h-7.2c-2.3,0-4.2,1.9-4.2,4.2v47.7c0,2.1,1.5,3.9,3.6,4.2
		c12.8,2.1,25.9,3.1,38.9,3.1s26.1-1.1,38.9-3.1c2.1-0.3,3.6-2.1,3.6-4.2V84.8C144.5,82.5,142.6,80.6,140.3,80.6z M133.2,129.6h-8.5
		v-8.5h8.5V129.6z"/>
</g>
</svg>
